%YAML 1.1
%TAG !u! tag:unity3d.com,2011:
--- !u!1001 &6567290250388908583
PrefabInstance:
  m_ObjectHideFlags: 0
  serializedVersion: 2
  m_Modification:
    m_TransformParent: {fileID: 0}
    m_Modifications:
    - target: {fileID: -8679921383154817045, guid: e9b5eb2ff01a96541a3d79a7f797fd8c, type: 3}
      propertyPath: m_RootOrder
      value: 0
      objectReference: {fileID: 0}
    - target: {fileID: -8679921383154817045, guid: e9b5eb2ff01a96541a3d79a7f797fd8c, type: 3}
      propertyPath: m_LocalScale.x
      value: 188.45377
      objectReference: {fileID: 0}
    - target: {fileID: -8679921383154817045, guid: e9b5eb2ff01a96541a3d79a7f797fd8c, type: 3}
      propertyPath: m_LocalScale.y
      value: 188.45377
      objectReference: {fileID: 0}
    - target: {fileID: -8679921383154817045, guid: e9b5eb2ff01a96541a3d79a7f797fd8c, type: 3}
      propertyPath: m_LocalScale.z
      value: 188.45377
      objectReference: {fileID: 0}
    - target: {fileID: -8679921383154817045, guid: e9b5eb2ff01a96541a3d79a7f797fd8c, type: 3}
      propertyPath: m_LocalPosition.x
      value: -193.3
      objectReference: {fileID: 0}
    - target: {fileID: -8679921383154817045, guid: e9b5eb2ff01a96541a3d79a7f797fd8c, type: 3}
      propertyPath: m_LocalPosition.y
      value: -6.1
      objectReference: {fileID: 0}
    - target: {fileID: -8679921383154817045, guid: e9b5eb2ff01a96541a3d79a7f797fd8c, type: 3}
      propertyPath: m_LocalPosition.z
      value: -13.2
      objectReference: {fileID: 0}
    - target: {fileID: -8679921383154817045, guid: e9b5eb2ff01a96541a3d79a7f797fd8c, type: 3}
      propertyPath: m_LocalRotation.w
      value: 1
      objectReference: {fileID: 0}
    - target: {fileID: -8679921383154817045, guid: e9b5eb2ff01a96541a3d79a7f797fd8c, type: 3}
      propertyPath: m_LocalRotation.x
      value: 0
      objectReference: {fileID: 0}
    - target: {fileID: -8679921383154817045, guid: e9b5eb2ff01a96541a3d79a7f797fd8c, type: 3}
      propertyPath: m_LocalRotation.y
      value: 0
      objectReference: {fileID: 0}
    - target: {fileID: -8679921383154817045, guid: e9b5eb2ff01a96541a3d79a7f797fd8c, type: 3}
      propertyPath: m_LocalRotation.z
      value: 0
      objectReference: {fileID: 0}
    - target: {fileID: -8679921383154817045, guid: e9b5eb2ff01a96541a3d79a7f797fd8c, type: 3}
      propertyPath: m_LocalEulerAnglesHint.x
      value: 0
      objectReference: {fileID: 0}
    - target: {fileID: -8679921383154817045, guid: e9b5eb2ff01a96541a3d79a7f797fd8c, type: 3}
      propertyPath: m_LocalEulerAnglesHint.y
      value: 0
      objectReference: {fileID: 0}
    - target: {fileID: -8679921383154817045, guid: e9b5eb2ff01a96541a3d79a7f797fd8c, type: 3}
      propertyPath: m_LocalEulerAnglesHint.z
      value: 0
      objectReference: {fileID: 0}
    - target: {fileID: -8081787053032001046, guid: e9b5eb2ff01a96541a3d79a7f797fd8c, type: 3}
      propertyPath: m_Materials.Array.data[0]
      value: 
      objectReference: {fileID: 2100000, guid: b12789f1829b706419fda261876938a3, type: 2}
    - target: {fileID: -3247313938292755297, guid: e9b5eb2ff01a96541a3d79a7f797fd8c, type: 3}
      propertyPath: m_Materials.Array.data[0]
      value: 
      objectReference: {fileID: 2100000, guid: 6deb2521b58ed1b459ecc3267de0ef6f, type: 2}
    - target: {fileID: -2238095122489703909, guid: e9b5eb2ff01a96541a3d79a7f797fd8c, type: 3}
      propertyPath: m_Materials.Array.data[0]
      value: 
      objectReference: {fileID: 2100000, guid: 2651b834c1e4b90418710fb835ad3f70, type: 2}
    - target: {fileID: 919132149155446097, guid: e9b5eb2ff01a96541a3d79a7f797fd8c, type: 3}
      propertyPath: m_Name
      value: map_rings Variant
      objectReference: {fileID: 0}
    - target: {fileID: 7156223829487148515, guid: e9b5eb2ff01a96541a3d79a7f797fd8c, type: 3}
      propertyPath: m_Materials.Array.data[0]
      value: 
      objectReference: {fileID: 2100000, guid: efa10d2db51f3d24e8c644db37dc009b, type: 2}
    m_RemovedComponents: []
  m_SourcePrefab: {fileID: 100100000, guid: e9b5eb2ff01a96541a3d79a7f797fd8c, type: 3}
