%YAML 1.1
%TAG !u! tag:unity3d.com,2011:
--- !u!1045 &1
EditorBuildSettings:
  m_ObjectHideFlags: 0
  serializedVersion: 2
  m_Scenes:
  - enabled: 1
    path: Assets/_Game/Scenes/MainMenu.unity
    guid: 312bdcdb8ffa85d459948cb4bcba70a0
  - enabled: 1
    path: Assets/_Game/Scenes/OldGameMain.unity
    guid: 9d49c864b4d8405448fc90a16580c194
  m_configObjects: {}
